<svg width="288" height="47" viewBox="0 0 288 47" fill="none" xmlns="http://www.w3.org/2000/svg">
<path d="M10.1787 34.468C8.45867 34.468 6.79867 34.258 5.19867 33.838C3.61867 33.398 2.32867 32.838 1.32867 32.158L3.27867 27.778C4.21867 28.378 5.29867 28.878 6.51867 29.278C7.75867 29.658 8.98867 29.848 10.2087 29.848C11.0287 29.848 11.6887 29.778 12.1887 29.638C12.6887 29.478 13.0487 29.278 13.2687 29.038C13.5087 28.778 13.6287 28.478 13.6287 28.138C13.6287 27.658 13.4087 27.278 12.9687 26.998C12.5287 26.718 11.9587 26.488 11.2587 26.308C10.5587 26.128 9.77867 25.948 8.91867 25.768C8.07867 25.588 7.22867 25.358 6.36867 25.078C5.52867 24.798 4.75867 24.438 4.05867 23.998C3.35867 23.538 2.78867 22.948 2.34867 22.228C1.90867 21.488 1.68867 20.558 1.68867 19.438C1.68867 18.178 2.02867 17.038 2.70867 16.018C3.40867 14.998 4.44867 14.178 5.82867 13.558C7.20867 12.938 8.92867 12.628 10.9887 12.628C12.3687 12.628 13.7187 12.788 15.0387 13.108C16.3787 13.408 17.5687 13.858 18.6087 14.458L16.7787 18.868C15.7787 18.328 14.7887 17.928 13.8087 17.668C12.8287 17.388 11.8787 17.248 10.9587 17.248C10.1387 17.248 9.47867 17.338 8.97867 17.518C8.47867 17.678 8.11867 17.898 7.89867 18.178C7.67867 18.458 7.56867 18.778 7.56867 19.138C7.56867 19.598 7.77867 19.968 8.19867 20.248C8.63867 20.508 9.20867 20.728 9.90867 20.908C10.6287 21.068 11.4087 21.238 12.2487 21.418C13.1087 21.598 13.9587 21.828 14.7987 22.108C15.6587 22.368 16.4387 22.728 17.1387 23.188C17.8387 23.628 18.3987 24.218 18.8187 24.958C19.2587 25.678 19.4787 26.588 19.4787 27.688C19.4787 28.908 19.1287 30.038 18.4287 31.078C17.7487 32.098 16.7187 32.918 15.3387 33.538C13.9787 34.158 12.2587 34.468 10.1787 34.468ZM20.7025 34.048L29.9725 13.048H35.8225L45.1225 34.048H38.9425L31.6825 15.958H34.0225L26.7625 34.048H20.7025ZM25.7725 29.968L27.3025 25.588H37.5625L39.0925 29.968H25.7725ZM47.8065 34.048V13.048H57.4065C59.3265 13.048 60.9765 13.358 62.3565 13.978C63.7565 14.598 64.8365 15.498 65.5965 16.678C66.3565 17.838 66.7365 19.218 66.7365 20.818C66.7365 22.398 66.3565 23.768 65.5965 24.928C64.8365 26.088 63.7565 26.988 62.3565 27.628C60.9765 28.248 59.3265 28.558 57.4065 28.558H51.1065L53.7465 25.978V34.048H47.8065ZM53.7465 26.608L51.1065 23.878H57.0465C58.2865 23.878 59.2065 23.608 59.8065 23.068C60.4265 22.528 60.7365 21.778 60.7365 20.818C60.7365 19.838 60.4265 19.078 59.8065 18.538C59.2065 17.998 58.2865 17.728 57.0465 17.728H51.1065L53.7465 14.998V26.608ZM67.058 34.048L76.328 13.048H82.178L91.478 34.048H85.298L78.038 15.958H80.378L73.118 34.048H67.058ZM72.128 29.968L73.658 25.588H83.918L85.448 29.968H72.128Z" fill="#186AA5"/>
<path d="M98.572 34.1867L107.842 13.1867H113.692L122.992 34.1867H116.812L109.552 16.0967H111.892L104.632 34.1867H98.572ZM103.642 30.1067L105.172 25.7267H115.432L116.962 30.1067H103.642ZM125.676 34.1867V13.1867H135.276C137.196 13.1867 138.846 13.4967 140.226 14.1167C141.626 14.7367 142.706 15.6367 143.466 16.8167C144.226 17.9767 144.606 19.3567 144.606 20.9567C144.606 22.5367 144.226 23.9067 143.466 25.0667C142.706 26.2267 141.626 27.1267 140.226 27.7667C138.846 28.3867 137.196 28.6967 135.276 28.6967H128.976L131.616 26.1167V34.1867H125.676ZM131.616 26.7467L128.976 24.0167H134.916C136.156 24.0167 137.076 23.7467 137.676 23.2067C138.296 22.6667 138.606 21.9167 138.606 20.9567C138.606 19.9767 138.296 19.2167 137.676 18.6767C137.076 18.1367 136.156 17.8667 134.916 17.8667H128.976L131.616 15.1367V26.7467ZM159.385 34.6067C157.705 34.6067 156.155 34.3367 154.735 33.7967C153.315 33.2567 152.075 32.4967 151.015 31.5167C149.975 30.5167 149.165 29.3567 148.585 28.0367C148.005 26.7167 147.715 25.2667 147.715 23.6867C147.715 22.1067 148.005 20.6567 148.585 19.3367C149.165 18.0167 149.975 16.8667 151.015 15.8867C152.075 14.8867 153.315 14.1167 154.735 13.5767C156.155 13.0367 157.705 12.7667 159.385 12.7667C161.085 12.7667 162.635 13.0367 164.035 13.5767C165.455 14.1167 166.685 14.8867 167.725 15.8867C168.765 16.8667 169.575 18.0167 170.155 19.3367C170.755 20.6567 171.055 22.1067 171.055 23.6867C171.055 25.2667 170.755 26.7267 170.155 28.0667C169.575 29.3867 168.765 30.5367 167.725 31.5167C166.685 32.4967 165.455 33.2567 164.035 33.7967C162.635 34.3367 161.085 34.6067 159.385 34.6067ZM159.385 29.6867C160.185 29.6867 160.925 29.5467 161.605 29.2667C162.305 28.9867 162.905 28.5867 163.405 28.0667C163.925 27.5267 164.325 26.8867 164.605 26.1467C164.905 25.4067 165.055 24.5867 165.055 23.6867C165.055 22.7667 164.905 21.9467 164.605 21.2267C164.325 20.4867 163.925 19.8567 163.405 19.3367C162.905 18.7967 162.305 18.3867 161.605 18.1067C160.925 17.8267 160.185 17.6867 159.385 17.6867C158.585 17.6867 157.835 17.8267 157.135 18.1067C156.455 18.3867 155.855 18.7967 155.335 19.3367C154.835 19.8567 154.435 20.4867 154.135 21.2267C153.855 21.9467 153.715 22.7667 153.715 23.6867C153.715 24.5867 153.855 25.4067 154.135 26.1467C154.435 26.8867 154.835 27.5267 155.335 28.0667C155.855 28.5867 156.455 28.9867 157.135 29.2667C157.835 29.5467 158.585 29.6867 159.385 29.6867ZM179.343 34.1867V17.8967H172.893V13.1867H191.703V17.8967H185.283V34.1867H179.343ZM200.376 21.3167H210.126V25.7567H200.376V21.3167ZM200.796 29.5967H211.776V34.1867H194.916V13.1867H211.386V17.7767H200.796V29.5967ZM221.382 29.5367L221.052 22.8767L230.082 13.1867H236.622L227.622 22.9367L224.322 26.3867L221.382 29.5367ZM216.072 34.1867V13.1867H221.952V34.1867H216.072ZM230.172 34.1867L223.332 25.5167L227.202 21.3767L237.072 34.1867H230.172ZM245.091 21.3167H254.841V25.7567H245.091V21.3167ZM245.511 29.5967H256.491V34.1867H239.631V13.1867H256.101V17.7767H245.511V29.5967ZM260.787 34.1867V13.1867H270.387C272.307 13.1867 273.957 13.4967 275.337 14.1167C276.737 14.7367 277.817 15.6367 278.577 16.8167C279.337 17.9767 279.717 19.3567 279.717 20.9567C279.717 22.5367 279.337 23.9067 278.577 25.0667C277.817 26.2067 276.737 27.0867 275.337 27.7067C273.957 28.3067 272.307 28.6067 270.387 28.6067H264.087L266.727 26.1167V34.1867H260.787ZM273.777 34.1867L268.557 26.5367H274.887L280.137 34.1867H273.777ZM266.727 26.7467L264.087 24.0167H270.027C271.267 24.0167 272.187 23.7467 272.787 23.2067C273.407 22.6667 273.717 21.9167 273.717 20.9567C273.717 19.9767 273.407 19.2167 272.787 18.6767C272.187 18.1367 271.267 17.8667 270.027 17.8667H264.087L266.727 15.1367V26.7467Z" fill="#D1E4F3"/>
</svg>
